…
Joining data
------------

We've now got a separate, tidy, data frame of the software each person wants to learn. As required we can join this to our original data for use.

``` r
df %>% 
   select(name, seniority) %>% 
   inner_join(df.learning)
```

    ## Joining, by = "name"

    ## # A tibble: 42 x 3
    ##        name    seniority want_to_learn
    ##       <chr>        <chr>         <chr>
    ##  1 Person 1   Mid career        Python
    ##  2 Person 1   Mid career             R
    ##  3 Person 2 Early career        Python
    ##  4 Person 2 Early career           SQL
    ##  5 Person 3   Mid career        Python
    ##  6 Person 4       Senior      Arc/QGIS
    ##  7 Person 4       Senior             R
    ##  8 Person 4       Senior          SPSS
    ##  9 Person 5      Student             R
    ## 10 Person 6 Early career        Python
    ## # ... with 32 more rows
…
